C:\Windows\System32\config\systemprofile\AppData\Local\Jenkins\.jenkins\workspace\exemple3\src\main\java\epsi\CalculatorAlgo.java
C:\Windows\System32\config\systemprofile\AppData\Local\Jenkins\.jenkins\workspace\exemple3\src\main\java\epsi\CalculatorService.java
C:\Windows\System32\config\systemprofile\AppData\Local\Jenkins\.jenkins\workspace\exemple3\src\main\java\epsi\App.java
